compound_combinational_circuits/tb1.vcd
$date
	Tue Oct  1 03:13:11 2024
$end
$version
	Icarus Verilog
$end
$timescale
	1s
$end
$scope module tb1 $end
$var reg 1 ! a $end
$upscope $end
$scope module tb1 $end
$var reg 1 " b $end
$upscope $end
$scope module tb1 $end
$var reg 1 # c $end
$upscope $end
$scope module tb1 $end
$var reg 1 $ d $end
$upscope $end
$scope module tb1 $end
$var wire 1 % y $end
$upscope $end
$scope module tb2 $end
$var reg 1 & a $end
$upscope $end
$scope module tb2 $end
$var reg 1 ' b $end
$upscope $end
$scope module tb2 $end
$var reg 1 ( c $end
$upscope $end
$scope module tb2 $end
$var reg 1 ) d $end
$upscope $end
$scope module tb2 $end
$var reg 1 * e $end
$upscope $end
$scope module tb2 $end
$var reg 1 + f $end
$upscope $end
$scope module tb2 $end
$var wire 1 , y $end
$upscope $end
$scope module tb3 $end
$var reg 1 - a $end
$upscope $end
$scope module tb3 $end
$var reg 1 . b $end
$upscope $end
$scope module tb3 $end
$var reg 1 / c $end
$upscope $end
$scope module tb3 $end
$var reg 1 0 d $end
$upscope $end
$scope module tb3 $end
$var reg 1 1 e $end
$upscope $end
$scope module tb3 $end
$var wire 1 2 y $end
$upscope $end
$scope module tb4 $end
$var reg 1 3 a $end
$upscope $end
$scope module tb4 $end
$var reg 1 4 b $end
$upscope $end
$scope module tb4 $end
$var reg 1 5 c $end
$upscope $end
$scope module tb4 $end
$var reg 1 6 d $end
$upscope $end
$scope module tb4 $end
$var wire 1 7 y $end
$upscope $end
$scope module tb5 $end
$var reg 1 8 a $end
$upscope $end
$scope module tb5 $end
$var reg 1 9 b $end
$upscope $end
$scope module tb5 $end
$var reg 1 : c $end
$upscope $end
$scope module tb5 $end
$var reg 1 ; d $end
$upscope $end
$scope module tb5 $end
$var wire 1 < y $end
$upscope $end
$enddefinitions $end
$comment Show the parameter values. $end
$dumpall
$end
#0
$dumpvars
1<
0;
0:
09
08
17
06
05
04
x3
12
01
00
0/
0.
0-
0,
0+
0*
0)
0(
0'
0&
0%
0$
0#
0"
0!
$end
#5
18
1-
1&
1!
#10
0<
07
08
0-
0&
0!
19
14
1.
1'
1"
#15
1<
1%
17
18
1-
1&
1!
1:
15
1/
1(
1#
#20
0<
02
08
0-
0&
0!
09
04
0.
0'
0"
1;
16
10
1)
1$
#25
18
1-
1&
1!
11
1*
#30
0%
12
07
1,
08
0-
0&
0!
19
14
1.
1'
1"
0:
05
0/
0(
0#
1+
#35
1<
1%
02
18
1-
1&
1!
#40
0,
0%
1<
17
08
0-
0&
0!
09
04
0.
0'
0"
0;
06
00
0)
0$
#45
18
1-
1&
1!
1:
15
1/
1(
1#
#50
12
08
0-
0&
0!
19
14
1.
1'
1"
01
0*
#55
1,
1%
18
1-
1&
1!
#60
0<
0%
0,
08
0-
0&
0!
09
04
0.
0'
0"
0:
05
0/
0(
0#
1;
16
10
1)
1$
0+
#65
18
1-
1&
1!
#70
07
08
0-
0&
0!
19
14
1.
1'
1"
#75
1%
02
18
1-
1&
1!
1:
15
1/
1(
1#
11
1*
#80
1<
0%
17
08
0-
0&
0!
09
04
0.
0'
0"
0;
06
00
0)
0$
#85
18
1-
1&
1!
#90
0<
12
07
08
0-
0&
0!
19
14
1.
1'
1"
0:
05
0/
0(
0#
1+
#95
1%
02
18
1-
1&
1!
#100
0%
17
12
08
0-
0&
0!
09
04
0.
0'
0"
1;
16
10
1)
1$
01
0*
